{
	"partitions" : [
		{
			"name" : "Top",
			"pins" : [
				{
					"name" : "milli_led",
					"strict" : false
				},
				{
					"name" : "nano_led",
					"strict" : false
				},
				{
					"name" : "nano_pin",
					"strict" : false
				},
				{
					"name" : "clk",
					"strict" : false
				},
				{
					"name" : "milli_pin",
					"strict" : false
				}
			]
		}
	]
}